module user-service-gin

require (
	github.com/davecgh/go-spew v1.1.1 // indirect
	github.com/gin-contrib/sse v0.0.0-20170109093832-22d885f9ecc7 // indirect
	github.com/gin-gonic/gin v1.3.0
	github.com/golang/protobuf v1.2.0 // indirect
	github.com/gorilla/mux v1.6.2
	github.com/lib/pq v1.0.0 // indirect
	github.com/mattn/go-isatty v0.0.4 // indirect
	github.com/pmezard/go-difflib v1.0.0 // indirect
	github.com/stretchr/testify v1.2.2 // indirect
	github.com/ugorji/go/codec v0.0.0-20181120210156-7d13b37dbec6 // indirect
	gopkg.in/go-playground/validator.v8 v8.18.2 // indirect
	gopkg.in/yaml.v2 v2.2.1 // indirect
)
